C:\Users\WahyuPH\IdeaProjects\Challenge-2\src\main\java\com\Wahyuprihantono\main\MeMeMod.java
C:\Users\WahyuPH\IdeaProjects\Challenge-2\src\main\java\com\Wahyuprihantono\main\Menu.java
C:\Users\WahyuPH\IdeaProjects\Challenge-2\src\main\java\com\Wahyuprihantono\main\Main.java
C:\Users\WahyuPH\IdeaProjects\Challenge-2\src\main\java\com\Wahyuprihantono\OOP\mainMenu.java
